assignment-06-join.utf8.md
…
income=read.csv("income.csv") %>% 
  mutate(zip=clean.zipcodes(zip))

obesity4= obesity4 %>% 
  left_join(income, by="zip") %>% 
  drop_na()

obesity4

## # A tibble: 580 x 7
##    zip   adult_n obese_o non_obese_n obese_p households income
##    <chr>   <dbl>   <dbl>       <dbl>   <dbl>      <int>  <int>
##  1 53001    1353    589.        764.   0.435        788  72206
##  2 53002    2029    772.       1257.   0.381        869  85478
##  3 53004    2408   1157.       1251.   0.481       1217  77989
##  4 53005   15189   4632.      10557.   0.305       7556  97202
##  5 53006     458    167.        291.   0.366        670  74107
##  6 53007    1437    607.        830.   0.422        895  41925
##  7 53010    5961   2524.       3437.   0.423       2994  63509
##  8 53011    1510    738.        772.   0.489        932  72500
##  9 53012   14222   4787.       9435.   0.337       7351  88844
## 10 53013    2457   1028.       1429.   0.418       1301  68938
## # ... with 570 more rows
…
ru=read.csv("rural-urban.csv") %>% 
  mutate(zip=clean.zipcodes(zip))

obesity7= obesity7 %>% 
  left_join(ru, by="zip") %>% 
  mutate(rural_n=(1-p_urban)*pop_n,
         urban_n=p_urban*pop_n) %>% 
  select(zip,age,pop_n,obese_n,obese_p,rural_n,urban_n,p_urban,)
  
obesity7

## # A tibble: 3,870 x 8
## # Groups:   zip [774]
##    zip   age     pop_n obese_n obese_p rural_n urban_n p_urban
##    <chr> <chr>   <dbl>   <dbl>   <dbl>   <dbl>   <dbl>   <dbl>
##  1 53001 05-17     315    NA    NA         315       0       0
##  2 53001 18-34     304    79.7   0.262     304       0       0
##  3 53001 35-54     551   242.    0.439     551       0       0
##  4 53001 55-74     498   263.    0.528     498       0       0
##  5 53001 75-plus   128    NA    NA         128       0       0
##  6 53002 05-17     383    56.6   0.148     383       0       0
##  7 53002 18-34     565   152.    0.270     565       0       0
##  8 53002 35-54     765   310.    0.406     765       0       0
##  9 53002 55-74     556   273.    0.492     556       0       0
## 10 53002 75-plus   143    47.1   0.329     143       0       0
## # ... with 3,860 more rows
…
